<?xml version="1.0" encoding="UTF-8" standalone="no"?>
<svg
   xmlns:dc="http://purl.org/dc/elements/1.1/"
   xmlns:cc="http://creativecommons.org/ns#"
   xmlns:rdf="http://www.w3.org/1999/02/22-rdf-syntax-ns#"
   xmlns:svg="http://www.w3.org/2000/svg"
   xmlns="http://www.w3.org/2000/svg"
   xmlns:xlink="http://www.w3.org/1999/xlink"
   xmlns:sodipodi="http://sodipodi.sourceforge.net/DTD/sodipodi-0.dtd"
   xmlns:inkscape="http://www.inkscape.org/namespaces/inkscape"
   id="svg2"
   viewBox="0 0 95.406248 107.3125"
   version="1.0"
   inkscape:version="0.48.4 r9939"
   width="100%"
   height="100%"
   sodipodi:docname="delete.svg">
  <sodipodi:namedview
     pagecolor="#ffffff"
     bordercolor="#666666"
     borderopacity="1"
     objecttolerance="10"
     gridtolerance="10"
     guidetolerance="10"
     inkscape:pageopacity="0"
     inkscape:pageshadow="2"
     inkscape:window-width="961"
     inkscape:window-height="735"
     id="namedview54"
     showgrid="false"
     fit-margin-top="0"
     fit-margin-left="0"
     fit-margin-right="0"
     fit-margin-bottom="0"
     inkscape:zoom="1.84375"
     inkscape:cx="52.084746"
     inkscape:cy="57.3125"
     inkscape:window-x="240"
     inkscape:window-y="197"
     inkscape:window-maximized="0"
     inkscape:current-layer="svg2" />
  <defs
     id="defs4">
    <linearGradient
       id="linearGradient2299"
       x1="76"
       xlink:href="#BlackTransparent"
       gradientUnits="userSpaceOnUse"
       y1="105.3"
       gradientTransform="matrix(0.9,0,0,0.9,3.5,9)"
       x2="76"
       y2="86" />
    <linearGradient
       id="BlackTransparent">
      <stop
         id="stop8"
         offset="0" />
      <stop
         id="stop10"
         stop-opacity="0"
         offset="1" />
    </linearGradient>
    <linearGradient
       id="WhiteTransparent">
      <stop
         id="stop13"
         stop-color="#fff"
         offset="0" />
      <stop
         id="stop15"
         stop-color="#fff"
         stop-opacity="0"
         offset="1" />
    </linearGradient>
    <linearGradient
       id="linearGradient6182"
       xlink:href="#WhiteTransparent"
       gradientUnits="userSpaceOnUse"
       x2="0"
       y1="21"
       y2="30" />
    <linearGradient
       id="linearGradient6185"
       xlink:href="#WhiteTransparent"
       gradientUnits="userSpaceOnUse"
       x2="0"
       y1="71"
       y2="59" />
    <linearGradient
       id="linearGradient6188"
       xlink:href="#WhiteTransparent"
       gradientUnits="userSpaceOnUse"
       x2="0"
       y1="52"
       y2="16" />
    <linearGradient
       id="linearGradient6192"
       xlink:href="#BlackTransparent"
       gradientUnits="userSpaceOnUse"
       x2="0"
       y1="35"
       y2="48" />
    <linearGradient
       id="linearGradient6197"
       x1="13"
       xlink:href="#BlackTransparent"
       gradientUnits="userSpaceOnUse"
       x2="13"
       y1="56"
       y2="102" />
    <linearGradient
       id="linearGradient6213"
       gradientUnits="userSpaceOnUse"
       x2="46"
       x1="22"
       xlink:href="#WhiteTransparent" />
    <linearGradient
       id="linearGradient6216"
       gradientUnits="userSpaceOnUse"
       x2="60"
       x1="96"
       xlink:href="#WhiteTransparent" />
    <clipPath
       id="clipoutline1"
       clipPathUnits="userSpaceOnUse">
      <path
         id="outline1"
         d="M 60.3,27.4 C 40.4,27.4 24.4,35 24.4,44 v 56.8 c 0,9.2 16,16.5 35.9,16.5 C 80,117.3 96,110 96,100.8 V 44 C 96,35 80,27.4 60.3,27.4 z"
         inkscape:connector-curvature="0" />
    </clipPath>
    <clipPath
       id="clipoutline2"
       clipPathUnits="userSpaceOnUse">
      <path
         id="outline2"
         d="M 59.6,18 C 36.3,18 17.6,27.8 17,39.7 v 9.8 C 17,62 36.5,72 60.7,72 85,72 104.4,62 104.4,49.5 V 39.8 C 104.4,27.6 84.6,18 60.7,18 h -1.1 z"
         inkscape:connector-curvature="0" />
    </clipPath>
    <filter
       id="ShadowBlur"
       y="0"
       x="0"
       filterUnits="userSpaceOnUse"
       color-interpolation-filters="sRGB">
      <feGaussianBlur
         id="feGaussianBlur31"
         in="SourceAlpha"
         stdDeviation="3"
         result="blur" />
    </filter>
  </defs>
  <style
     id="style33"
     type="text/css">.specularity {opacity:0.5;}
	.high-specularity {opacity:0.75;}
	.low-specularity {opacity:0.25;}
	.full-specularity {opacity:1;}
	.shade{opacity:0.5;}
	.black {fill:#000000;}
	.white {fill:#ffffff;}
	.outline-big {stroke-width:16;stroke:none;opacity:0.;fill:none;}
	.outline-small {stroke-width:8px;stroke:black;opacity:1;fill:none;}
	.stroke-highlight {fill:none;stroke:white;opacity:0.3;stroke-width:9px;stroke-linejoin:round;}
				.base-shadow 	{fill:black;opacity:0.4;}
	.stroke-aluminium5	{stroke:#555753;}
	.aluminium1	{fill:#eeeeec;}
	.aluminium2	{fill:#d3d7cf;}
	.aluminium3	{fill:#babdb6;}
	.aluminium4	{fill:#888a85;}
	.aluminium5	{fill:#555753;}
	.aluminium6	{fill:#2e3436;}</style>
  <g
     id="g35"
     transform="translate(-13,-14.000003)">
    <g
       id="g37">
      <g
         id="g41">
        <use
           id="use43"
           xlink:href="#outline1"
           class="outline-big"
           x="0"
           y="0"
           width="128"
           height="128" />
        <use
           id="use45"
           xlink:href="#outline1"
           class="outline-small stroke-aluminium5"
           style="fill:#555753;stroke:#555753;stroke-width:8px"
           x="0"
           y="0"
           width="128"
           height="128" />
      </g>
      <path
         id="path47"
         d="M 60.4,30 C 40.6,30 24.7,37.6 24.7,46.7 v 54 c 0,9.1 15.9,16.3 35.7,16.3 C 80,117 96,109.8 96,100.7 v -54 C 96,37.6 80,30 60.4,30 z"
         inkscape:connector-curvature="0"
         style="fill:#888a85" />
      <path
         id="path49"
         d="M 60.4,27.6 C 40.5,27.6 40.5,117 60.4,117 80,117 96,109.9 96,100.7 V 44 C 96,35 80,27.6 60.4,27.6 z"
         class="specularity"
         inkscape:connector-curvature="0"
         style="opacity:0.5;fill:url(#linearGradient6216)" />
      <path
         id="path51"
         d="M 42.4,58 24.7,49.7 V 101 c 0,5 7.3,11.7 17.8,13.7 L 42.4,58 z"
         class="high-specularity"
         inkscape:connector-curvature="0"
         style="opacity:0.75;fill:url(#linearGradient6213)" />
      <path
         id="path53"
         d="M 24.6,57.7 V 75.4 C 45.5,90.5 75.5,91 96,75.4 V 57.7 C 76,74 45,72.5 24.6,57.7 z"
         class="shade"
         inkscape:connector-curvature="0"
         style="opacity:0.5;fill:url(#linearGradient6197)" />
      <use
         id="use55"
         clip-path="url(#clipoutline1)"
         xlink:href="#outline1"
         class="stroke-highlight"
         style="opacity:0.3;fill:none;stroke:#ffffff;stroke-width:9px;stroke-linejoin:round"
         x="0"
         y="0"
         width="128"
         height="128" />
    </g>
    <g
       id="g57">
      <g
         id="g59">
        <use
           id="use61"
           xlink:href="#outline2"
           class="outline-big"
           x="0"
           y="0"
           width="128"
           height="128" />
        <use
           id="use63"
           xlink:href="#outline2"
           class="outline-small stroke-aluminium5"
           style="fill:#555753;stroke:#555753;stroke-width:8px"
           x="0"
           y="0"
           width="128"
           height="128" />
      </g>
      <path
         id="path65"
         class="aluminium2"
         d="m 60.7,18 c 24.3,0 43.7,10 43.7,22 v 3.5 C 104.4,56 85,66 60.7,66 36.5,66 17,56 17,43.5 V 40 C 17,28 36.5,18 60.7,18 z"
         inkscape:connector-curvature="0"
         style="fill:#d3d7cf" />
      <path
         id="path67"
         class="aluminium4"
         d="M 60.7,59 C 85,59 104.4,52.6 104.4,39.4 V 49.5 C 104.4,62 85,72 60.7,72 36.5,72 17,62 17,49.5 V 39.4 C 17,47.3 36.5,59 60.7,59 z"
         inkscape:connector-curvature="0"
         style="fill:#888a85" />
      <path
         id="path69"
         d="m 16.473,36.525 c 0,11.4 27.282,17.545 44.227,17.545 17.652,0 43.7,-3.745 43.7,-17.545 v 3.359 c 0,16.05 -29.4,19.25 -43.7,19.25 -13.8,0 -44.319,-8.339 -44.319,-20.339"
         inkscape:connector-curvature="0"
         style="opacity:0.5;fill:url(#linearGradient6188)" />
      <path
         id="path71"
         d="M 61,59 C 33.7,59 4.5,46.6 26.5,62.7 c 8.2,6 20.2,9 34.5,9 14.4,0 26,-3 34.7,-9 C 117,47.5 88,59 61,59 z"
         class="specularity"
         inkscape:connector-curvature="0"
         style="opacity:0.5;fill:url(#linearGradient6185)" />
      <use
         id="use73"
         clip-path="url(#clipoutline2)"
         xlink:href="#outline2"
         class="stroke-highlight"
         style="opacity:0.3;fill:none;stroke:#ffffff;stroke-width:9px;stroke-linejoin:round"
         x="0"
         y="0"
         width="128"
         height="128" />
      <g
         id="g75">
        <path
           id="path77"
           d="m 41.4,35.6 h 40.1 c 4.5,0 4.5,6.9 0,6.9 H 41.4 c -4.4,0 -4.6,-6.9 0,-6.9 z"
           class="shade"
           inkscape:connector-curvature="0"
           style="opacity:0.5;fill:url(#linearGradient6192)" />
        <path
           id="path79"
           d="m 61.6,19.3 c -18.6,0 -20.1,6 -20.1,12.3 v 6.8 c 0,2.9 7.5,2.3 7.5,0 V 36 c 0,-4.4 4.5,-5.5 12.6,-5.5 8.1,0 12.4,1.1 12.4,5.5 v 2.4 c 0,2.3 7.6,2.3 7.6,0 v -6.8 c 0,-6.3 -1.6,-12.3 -20,-12.3 z"
           inkscape:connector-curvature="0" />
        <path
           id="path81"
           d="M 61.6,21.3 C 53.4,21.3 47,22.5 47,27.4 h 29 c 0,-4.9 -6.3,-6.1 -14.4,-6.1 z"
           class="specularity"
           inkscape:connector-curvature="0"
           style="opacity:0.5;fill:url(#linearGradient6182)" />
      </g>
    </g>
    <g
       id="g83">
      <path
         id="path85"
         d="M 32,83.6 V 99 c 0,6.9 8,7 8,0 V 83.6 c 0,-5.3 -8,-5.7 -8,0 z m 48,0 V 99 c 1.9,5.9 7.5,4.7 8,0 V 83.6 c 0,-5 -7.8,-4.9 -8,0 z M 47.4,87.7 V 106 c 0,6.3 8.5,5.7 8.6,0 V 87.7 c 0,-5.4 -8.5,-5.7 -8.6,0 z m 16.6,0 V 106 c 0,6.5 8.9,5.8 9,0 V 87.7 c -1.4,-6.1 -8.2,-5.5 -9,0 z"
         inkscape:connector-curvature="0"
         style="opacity:0.5" />
      <path
         id="path87"
         d="m 88,91 c 0,4.2 -8,4 -8,0 v 7.4 c 0,5.6 8,6.3 8,0 V 91 z m -56,0 v 7.4 c 0,8 8,7.6 8,0 V 91 c 0,4.9 -8,4.6 -8,0 z m 24,6.8 c 0,5.1 -8.6,4.2 -8.6,0 v 7.9 c 0,6.9 8.5,5.9 8.6,0 v -7.9 z m 17,0 c 0,5.8 -9,4.9 -9,0 v 7.9 c 0,7.1 9,6.3 9,0 v -7.9 z"
         inkscape:connector-curvature="0"
         style="opacity:0.5;fill:url(#linearGradient2299)" />
    </g>
  </g>
  <metadata
     id="metadata52">
    <rdf:RDF>
      <cc:Work>
        <dc:format>image/svg+xml</dc:format>
        <dc:type
           rdf:resource="http://purl.org/dc/dcmitype/StillImage" />
        <cc:license
           rdf:resource="http://creativecommons.org/licenses/publicdomain/" />
        <dc:publisher>
          <cc:Agent
             rdf:about="http://openclipart.org/">
            <dc:title>Openclipart</dc:title>
          </cc:Agent>
        </dc:publisher>
        <dc:title>Trash Can</dc:title>
        <dc:date>2006-08-29T17:30:49</dc:date>
        <dc:description>Trans can. Not as clean as it could be ( pun intended ) but clean enough to publish and make useful.\n\n[b]This illustration uses clean SVG with a separated  area to theme elements in the design. Open it up in a plain text editor before loading into your favorite SVG editor for a world of fun[/b]</dc:description>
        <dc:source>http://openclipart.org/detail/68/trash-can-by-andy</dc:source>
        <dc:creator>
          <cc:Agent>
            <dc:title>Andy</dc:title>
          </cc:Agent>
        </dc:creator>
        <dc:subject>
          <rdf:Bag>
            <rdf:li>bin</rdf:li>
            <rdf:li>can</rdf:li>
            <rdf:li>clip art</rdf:li>
            <rdf:li>clipart</rdf:li>
            <rdf:li>colour</rdf:li>
            <rdf:li>contour</rdf:li>
            <rdf:li>desktop</rdf:li>
            <rdf:li>garbage</rdf:li>
            <rdf:li>grey</rdf:li>
            <rdf:li>icon</rdf:li>
            <rdf:li>logo</rdf:li>
            <rdf:li>metal</rdf:li>
            <rdf:li>metallic</rdf:li>
            <rdf:li>recycle</rdf:li>
            <rdf:li>shiny</rdf:li>
            <rdf:li>trash</rdf:li>
            <rdf:li>waste</rdf:li>
          </rdf:Bag>
        </dc:subject>
      </cc:Work>
      <cc:License
         rdf:about="http://creativecommons.org/licenses/publicdomain/">
        <cc:permits
           rdf:resource="http://creativecommons.org/ns#Reproduction" />
        <cc:permits
           rdf:resource="http://creativecommons.org/ns#Distribution" />
        <cc:permits
           rdf:resource="http://creativecommons.org/ns#DerivativeWorks" />
      </cc:License>
    </rdf:RDF>
  </metadata>
</svg>
